07_uVal/data/NewFile4.csv

X,CH1,CH2,Start,Increment,
Sequence,Volt,Volt,1.080000e+00,2.000000e-03
0,1.68e+01,-1.08e+00,
1,1.84e+01,-1.12e+00,
2,1.76e+01,-1.08e+00,
3,1.84e+01,-1.12e+00,
4,1.76e+01,-1.12e+00,
5,1.84e+01,-1.08e+00,
6,1.84e+01,-1.12e+00,
7,1.76e+01,-1.08e+00,
8,1.76e+01,-1.10e+00,
9,1.84e+01,-1.14e+00,
10,1.76e+01,-1.14e+00,
11,1.92e+01,-1.10e+00,
12,1.76e+01,-1.12e+00,
13,1.92e+01,-1.18e+00,
14,1.76e+01,-1.12e+00,
15,1.92e+01,-1.16e+00,
16,1.76e+01,-1.12e+00,
17,1.92e+01,-1.18e+00,
18,1.92e+01,-1.12e+00,
19,1.84e+01,-1.18e+00,
20,1.84e+01,-1.16e+00,
21,1.92e+01,-1.20e+00,
22,1.84e+01,-1.18e+00,
23,1.92e+01,-1.22e+00,
24,1.84e+01,-1.22e+00,
25,2.00e+01,-1.18e+00,
26,1.84e+01,-1.22e+00,
27,2.00e+01,-1.18e+00,
28,2.00e+01,-1.22e+00,
29,1.84e+01,-1.18e+00,
30,1.84e+01,-1.18e+00,
31,2.00e+01,-1.24e+00,
32,1.84e+01,-1.24e+00,
33,2.00e+01,-1.20e+00,
34,2.00e+01,-1.20e+00,
35,1.92e+01,-1.24e+00,
36,1.92e+01,-1.20e+00,
37,2.00e+01,-1.24e+00,
38,1.92e+01,-1.24e+00,
39,2.00e+01,-1.20e+00,
40,1.92e+01,-1.20e+00,
41,2.00e+01,-1.28e+00,
42,1.92e+01,-1.28e+00,
43,2.00e+01,-1.22e+00,
44,1.92e+01,-1.28e+00,
45,2.08e+01,-1.22e+00,
46,1.92e+01,-1.28e+00,
47,2.08e+01,-1.22e+00,
48,1.92e+01,-1.28e+00,
49,2.08e+01,-1.22e+00,
50,1.92e+01,-1.24e+00,
51,2.08e+01,-1.28e+00,
52,2.00e+01,-1.26e+00,
53,2.08e+01,-1.30e+00,
54,2.00e+01,-1.30e+00,
55,2.08e+01,-1.26e+00,
56,2.00e+01,-1.30e+00,
57,2.08e+01,-1.26e+00,
58,2.00e+01,-1.26e+00,
59,2.08e+01,-1.30e+00,
60,2.00e+01,-1.26e+00,
61,2.08e+01,-1.30e+00,
62,2.00e+01,-1.28e+00,
63,2.16e+01,-1.32e+00,
64,2.00e+01,-1.32e+00,
65,2.16e+01,-1.28e+00,
66,2.00e+01,-1.30e+00,
67,2.16e+01,-1.26e+00,
68,2.16e+01,-1.30e+00,
69,2.00e+01,-1.26e+00,
70,2.00e+01,-1.28e+00,
71,2.16e+01,-1.32e+00,
72,2.00e+01,-1.28e+00,
73,2.16e+01,-1.32e+00,
74,2.00e+01,-1.32e+00,
75,2.16e+01,-1.28e+00,
76,2.16e+01,-1.32e+00,
77,2.00e+01,-1.28e+00,
78,2.08e+01,-1.32e+00,
79,2.16e+01,-1.28e+00,
80,2.08e+01,-1.28e+00,
81,2.16e+01,-1.36e+00,
82,2.08e+01,-1.30e+00,
83,2.16e+01,-1.36e+00,
84,2.08e+01,-1.36e+00,
85,2.16e+01,-1.30e+00,
86,2.08e+01,-1.30e+00,
87,2.16e+01,-1.36e+00,
88,2.16e+01,-1.36e+00,
89,2.08e+01,-1.30e+00,
90,2.08e+01,-1.32e+00,
91,2.24e+01,-1.38e+00,
92,2.24e+01,-1.38e+00,
93,2.08e+01,-1.34e+00,
94,2.08e+01,-1.34e+00,
95,2.24e+01,-1.38e+00,
96,2.24e+01,-1.34e+00,
97,2.08e+01,-1.38e+00,
98,2.08e+01,-1.34e+00,
99,2.24e+01,-1.38e+00,
100,2.24e+01,-1.38e+00,
101,2.16e+01,-1.34e+00,
102,2.24e+01,-1.36e+00,
103,2.16e+01,-1.40e+00,
104,2.16e+01,-1.40e+00,
105,2.24e+01,-1.36e+00,
106,2.24e+01,-1.36e+00,
107,2.16e+01,-1.40e+00,
108,2.16e+01,-1.36e+00,
109,2.32e+01,-1.40e+00,
110,2.32e+01,-1.36e+00,
111,2.16e+01,-1.44e+00,
112,2.16e+01,-1.44e+00,
113,2.32e+01,-1.38e+00,
114,2.32e+01,-1.38e+00,
115,2.24e+01,-1.42e+00,
116,2.32e+01,-1.38e+00,
117,2.24e+01,-1.44e+00,
118,2.24e+01,-1.42e+00,
119,2.32e+01,-1.46e+00,
120,2.24e+01,-1.42e+00,
121,2.40e+01,-1.48e+00,
122,2.40e+01,-1.44e+00,
123,2.24e+01,-1.50e+00,
124,2.24e+01,-1.46e+00,
125,2.40e+01,-1.50e+00,
126,2.40e+01,-1.50e+00,
127,2.32e+01,-1.46e+00,
128,2.40e+01,-1.46e+00,
129,2.32e+01,-1.50e+00,
130,2.40e+01,-1.48e+00,
131,2.32e+01,-1.54e+00,
132,2.32e+01,-1.48e+00,
133,2.48e+01,-1.54e+00,
134,2.48e+01,-1.54e+00,
135,2.32e+01,-1.48e+00,
136,2.32e+01,-1.54e+00,
137,2.48e+01,-1.50e+00,
138,2.48e+01,-1.54e+00,
139,2.40e+01,-1.48e+00,
140,2.48e+01,-1.54e+00,
141,2.40e+01,-1.48e+00,
142,2.48e+01,-1.48e+00,
143,2.40e+01,-1.54e+00,
144,2.40e+01,-1.50e+00,
145,2.56e+01,-1.54e+00,
146,2.56e+01,-1.54e+00,
147,2.40e+01,-1.50e+00,
148,2.56e+01,-1.50e+00,
149,2.48e+01,-1.46e+00,
150,2.48e+01,-1.48e+00,
151,2.56e+01,-1.54e+00,
152,2.48e+01,-1.54e+00,
153,2.56e+01,-1.48e+00,
154,2.48e+01,-1.50e+00,
155,2.64e+01,-1.46e+00,
156,2.64e+01,-1.50e+00,
157,2.48e+01,-1.46e+00,
158,2.64e+01,-1.48e+00,
159,2.48e+01,-1.44e+00,
160,2.64e+01,-1.44e+00,
161,2.56e+01,-1.48e+00,
162,2.56e+01,-1.48e+00,
163,2.64e+01,-1.44e+00,
164,2.64e+01,-1.44e+00,
165,2.56e+01,-1.48e+00,
166,2.56e+01,-1.46e+00,
167,2.72e+01,-1.42e+00,
168,2.56e+01,-1.46e+00,
169,2.72e+01,-1.42e+00,
170,2.72e+01,-1.42e+00,
171,2.56e+01,-1.46e+00,
172,2.56e+01,-1.42e+00,
173,2.72e+01,-1.46e+00,
174,2.72e+01,-1.42e+00,
175,2.64e+01,-1.46e+00,
176,2.72e+01,-1.44e+00,
177,2.64e+01,-1.38e+00,
178,2.72e+01,-1.44e+00,
179,2.64e+01,-1.38e+00,
180,2.72e+01,-1.42e+00,
181,2.64e+01,-1.38e+00,
182,2.64e+01,-1.38e+00,
183,2.80e+01,-1.44e+00,
184,2.64e+01,-1.42e+00,
185,2.80e+01,-1.38e+00,
186,2.80e+01,-1.40e+00,
187,2.64e+01,-1.36e+00,
188,2.80e+01,-1.36e+00,
189,2.64e+01,-1.40e+00,
190,2.64e+01,-1.40e+00,
191,2.80e+01,-1.36e+00,
192,2.80e+01,-1.36e+00,
193,2.64e+01,-1.40e+00,
194,2.80e+01,-1.40e+00,
195,2.72e+01,-1.36e+00,
196,2.80e+01,-1.38e+00,
197,2.72e+01,-1.34e+00,
198,2.72e+01,-1.34e+00,
199,2.80e+01,-1.38e+00,
200,2.80e+01,-1.38e+00,
201,2.72e+01,-1.34e+00,
202,2.72e+01,-1.34e+00,
203,2.88e+01,-1.38e+00,
204,2.72e+01,-1.38e+00,
205,2.88e+01,-1.34e+00,
206,2.72e+01,-1.30e+00,
207,2.88e+01,-1.36e+00,
208,2.72e+01,-1.36e+00,
209,2.88e+01,-1.30e+00,
210,2.80e+01,-1.36e+00,
211,2.88e+01,-1.30e+00,
212,2.88e+01,-1.30e+00,
213,2.80e+01,-1.36e+00,
214,2.80e+01,-1.30e+00,
215,2.88e+01,-1.36e+00,
216,2.80e+01,-1.32e+00,
217,2.88e+01,-1.28e+00,
218,2.88e+01,-1.32e+00,
219,2.80e+01,-1.28e+00,
220,2.88e+01,-1.32e+00,
221,2.80e+01,-1.28e+00,
222,2.80e+01,-1.32e+00,
223,2.96e+01,-1.28e+00,
224,2.96e+01,-1.32e+00,
225,2.80e+01,-1.28e+00,
226,2.96e+01,-1.30e+00,
227,2.80e+01,-1.26e+00,
228,2.96e+01,-1.30e+00,
229,2.80e+01,-1.26e+00,
230,2.80e+01,-1.30e+00,
231,2.96e+01,-1.26e+00,
232,2.80e+01,-1.26e+00,
233,2.96e+01,-1.30e+00,
234,2.96e+01,-1.30e+00,
235,2.80e+01,-1.26e+00,
236,2.96e+01,-1.28e+00,
237,2.88e+01,-1.22e+00,
238,2.96e+01,-1.28e+00,
239,2.88e+01,-1.22e+00,
240,2.96e+01,-1.28e+00,
241,2.88e+01,-1.22e+00,
242,2.96e+01,-1.24e+00,
243,2.88e+01,-1.28e+00,
244,2.96e+01,-1.22e+00,
245,2.88e+01,-1.28e+00,
246,2.88e+01,-1.28e+00,
247,3.04e+01,-1.22e+00,
248,3.04e+01,-1.24e+00,
249,2.88e+01,-1.20e+00,
250,3.04e+01,-1.22e+00,
251,2.88e+01,-1.28e+00,
252,3.04e+01,-1.28e+00,
253,2.88e+01,-1.22e+00,
254,2.88e+01,-1.24e+00,
255,3.04e+01,-1.20e+00,
256,3.04e+01,-1.24e+00,
257,2.88e+01,-1.20e+00,
258,2.96e+01,-1.20e+00,
259,3.04e+01,-1.24e+00,
260,3.04e+01,-1.20e+00,
261,2.96e+01,-1.24e+00,
262,3.04e+01,-1.24e+00,
263,2.96e+01,-1.20e+00,
264,2.96e+01,-1.24e+00,
265,3.04e+01,-1.18e+00,
266,2.96e+01,-1.18e+00,
267,3.04e+01,-1.22e+00,
268,2.96e+01,-1.22e+00,
269,3.12e+01,-1.18e+00,
270,3.12e+01,-1.22e+00,
271,2.96e+01,-1.18e+00,
272,3.12e+01,-1.22e+00,
273,2.96e+01,-1.18e+00,
274,3.12e+01,-1.18e+00,
275,2.96e+01,-1.22e+00,
276,2.96e+01,-1.20e+00,
277,3.12e+01,-1.16e+00,
278,3.12e+01,-1.20e+00,
279,2.96e+01,-1.16e+00,
280,3.04e+01,-1.16e+00,
281,3.12e+01,-1.20e+00,
282,3.12e+01,-1.20e+00,
283,3.04e+01,-1.16e+00,
284,3.12e+01,-1.16e+00,
285,3.04e+01,-1.20e+00,
286,3.12e+01,-1.20e+00,
287,3.04e+01,-1.16e+00,
288,3.12e+01,-1.16e+00,
289,3.04e+01,-1.18e+00,
290,3.20e+01,-1.16e+00,
291,3.04e+01,-1.20e+00,
292,3.04e+01,-1.20e+00,
293,3.20e+01,-1.16e+00,
294,3.20e+01,-1.18e+00,
295,3.04e+01,-1.12e+00,
296,3.20e+01,-1.12e+00,
297,3.04e+01,-1.18e+00,
298,3.20e+01,-1.12e+00,
299,3.04e+01,-1.18e+00,
300,3.20e+01,-1.18e+00,
301,3.12e+01,-1.12e+00,
302,3.20e+01,-1.12e+00,
303,3.12e+01,-1.18e+00,
304,3.20e+01,-1.12e+00,
305,3.12e+01,-1.18e+00,
306,3.20e+01,-1.14e+00,
307,3.12e+01,-1.10e+00,
308,3.20e+01,-1.10e+00,
309,3.12e+01,-1.14e+00,
310,3.12e+01,-1.10e+00,
311,3.28e+01,-1.14e+00,
312,3.20e+01,-1.14e+00,
313,3.28e+01,-1.10e+00,
314,3.28e+01,-1.10e+00,
315,3.12e+01,-1.14e+00,
316,3.12e+01,-1.14e+00,
317,3.28e+01,-1.10e+00,
318,3.20e+01,-1.12e+00,
319,3.28e+01,-1.08e+00,
320,3.28e+01,-1.08e+00,
321,3.28e+01,-1.14e+00,
322,3.28e+01,-1.10e+00,
323,3.28e+01,-1.14e+00,
324,3.28e+01,-1.12e+00,
325,3.20e+01,-1.08e+00,
326,3.28e+01,-1.08e+00,
327,3.20e+01,-1.12e+00,
328,3.20e+01,-1.10e+00,
329,3.36e+01,-1.08e+00,
330,3.44e+01,-1.08e+00,
331,3.20e+01,-1.12e+00,
332,3.28e+01,-1.12e+00,
333,3.44e+01,-1.08e+00,
334,3.44e+01,-1.12e+00,
335,3.20e+01,-1.08e+00,
336,3.36e+01,-1.10e+00,
337,3.20e+01,-1.04e+00,
338,3.36e+01,-1.04e+00,
339,3.20e+01,-1.10e+00,
340,3.28e+01,-1.04e+00,
341,3.44e+01,-1.10e+00,
342,3.28e+01,-1.10e+00,
343,3.36e+01,-1.08e+00,
344,3.28e+01,-1.10e+00,
345,3.44e+01,-1.04e+00,
346,3.36e+01,-1.10e+00,
347,3.44e+01,-1.04e+00,
348,3.36e+01,-1.04e+00,
349,3.44e+01,-1.10e+00,
350,3.36e+01,-1.10e+00,
351,3.36e+01,-1.04e+00,
352,3.36e+01,-1.04e+00,
353,3.36e+01,-1.10e+00,
354,3.36e+01,-1.04e+00,
355,3.44e+01,-1.10e+00,
356,3.36e+01,-1.10e+00,
357,3.44e+01,-1.04e+00,
358,3.36e+01,-1.06e+00,
359,3.44e+01,-1.04e+00,
360,3.36e+01,-1.04e+00,
361,3.36e+01,-1.10e+00,
362,3.36e+01,-1.10e+00,
363,3.36e+01,-1.04e+00,
364,3.36e+01,-1.04e+00,
365,3.44e+01,-1.10e+00,
366,3.36e+01,-1.06e+00,
367,3.36e+01,-1.02e+00,
368,3.36e+01,-1.02e+00,
369,3.44e+01,-1.06e+00,
370,3.36e+01,-1.04e+00,
371,3.52e+01,-1.10e+00,
372,3.36e+01,-1.10e+00,
373,3.52e+01,-1.06e+00,
374,3.52e+01,-1.04e+00,
375,3.36e+01,-1.10e+00,
376,3.36e+01,-1.06e+00,
377,3.52e+01,-1.02e+00,
378,3.52e+01,-1.02e+00,
379,3.36e+01,-1.06e+00,
380,3.52e+01,-1.02e+00,
381,3.36e+01,-1.06e+00,
382,3.36e+01,-1.04e+00,
383,3.52e+01,-1.10e+00,
384,3.36e+01,-1.08e+00,
385,3.52e+01,-1.02e+00,
386,3.36e+01,-1.02e+00,
387,3.52e+01,-1.06e+00,
388,3.44e+01,-1.06e+00,
389,3.52e+01,-1.02e+00,
390,3.44e+01,-1.02e+00,
391,3.52e+01,-1.06e+00,
392,3.44e+01,-1.04e+00,
393,3.52e+01,-1.10e+00,
394,3.44e+01,-1.04e+00,
395,3.52e+01,-1.08e+00,
396,3.44e+01,-1.06e+00,
397,3.52e+01,-1.02e+00,
398,3.44e+01,-1.06e+00,
399,3.52e+01,-1.02e+00,
400,3.44e+01,-1.02e+00,
401,3.52e+01,-1.06e+00,
402,3.44e+01,-1.04e+00,
403,3.52e+01,-1.10e+00,
404,3.60e+01,-1.08e+00,
405,3.44e+01,-1.02e+00,
406,3.44e+01,-1.02e+00,
407,3.60e+01,-1.06e+00,
408,3.44e+01,-1.06e+00,
409,3.60e+01,-1.02e+00,
410,3.44e+01,-1.02e+00,
411,3.60e+01,-1.08e+00,
412,3.60e+01,-1.04e+00,
413,3.44e+01,-1.10e+00,
414,3.60e+01,-1.08e+00,
415,3.44e+01,-1.04e+00,
416,3.52e+01,-1.06e+00,
417,3.60e+01,-1.02e+00,
418,3.52e+01,-1.02e+00,
419,3.60e+01,-1.06e+00,
420,3.52e+01,-1.02e+00,
421,3.60e+01,-1.10e+00,
422,3.52e+01,-1.04e+00,
423,3.60e+01,-1.10e+00,
424,3.52e+01,-1.10e+00,
425,3.60e+01,-1.04e+00,
426,3.52e+01,-1.06e+00,
427,3.68e+01,-1.02e+00,
428,3.52e+01,-1.02e+00,
429,3.68e+01,-1.06e+00,
430,3.68e+01,-1.02e+00,
431,3.52e+01,-1.10e+00,
432,3.52e+01,-1.06e+00,
433,3.68e+01,-1.10e+00,
434,3.52e+01,-1.10e+00,
435,3.68e+01,-1.04e+00,
436,3.60e+01,-1.02e+00,
437,3.68e+01,-1.06e+00,
438,3.60e+01,-1.02e+00,
439,3.68e+01,-1.06e+00,
440,3.68e+01,-1.02e+00,
441,3.60e+01,-1.08e+00,
442,3.60e+01,-1.10e+00,
443,3.68e+01,-1.04e+00,
444,3.60e+01,-1.10e+00,
445,3.68e+01,-1.04e+00,
446,3.60e+01,-1.06e+00,
447,3.76e+01,-1.02e+00,
448,3.60e+01,-1.06e+00,
449,3.76e+01,-1.02e+00,
450,3.60e+01,-1.04e+00,
451,3.76e+01,-1.10e+00,
452,3.60e+01,-1.04e+00,
453,3.76e+01,-1.10e+00,
454,3.60e+01,-1.04e+00,
455,3.76e+01,-1.10e+00,
456,3.60e+01,-1.06e+00,
457,3.68e+01,-1.04e+00,
458,3.60e+01,-1.06e+00,
459,3.76e+01,-1.02e+00,
460,3.60e+01,-1.04e+00,
461,3.76e+01,-1.10e+00,
462,3.76e+01,-1.08e+00,
463,3.60e+01,-1.04e+00,
464,3.68e+01,-1.04e+00,
465,3.76e+01,-1.10e+00,
466,3.68e+01,-1.10e+00,
467,3.76e+01,-1.04e+00,
468,3.68e+01,-1.04e+00,
469,3.76e+01,-1.10e+00,
470,3.68e+01,-1.10e+00,
471,3.76e+01,-1.04e+00,
472,3.68e+01,-1.04e+00,
473,3.76e+01,-1.10e+00,
474,3.68e+01,-1.10e+00,
475,3.76e+01,-1.04e+00,
476,3.68e+01,-1.04e+00,
477,3.76e+01,-1.10e+00,
478,3.76e+01,-1.10e+00,
479,3.68e+01,-1.04e+00,
480,3.68e+01,-1.04e+00,
481,3.76e+01,-1.10e+00,
482,3.76e+01,-1.08e+00,
483,3.68e+01,-1.12e+00,
484,3.68e+01,-1.12e+00,
485,3.76e+01,-1.08e+00,
486,3.68e+01,-1.10e+00,
487,3.76e+01,-1.04e+00,
488,3.68e+01,-1.04e+00,
489,3.84e+01,-1.10e+00,
490,3.68e+01,-1.08e+00,
491,3.84e+01,-1.12e+00,
492,3.68e+01,-1.12e+00,
493,3.84e+01,-1.08e+00,
494,3.68e+01,-1.12e+00,
495,3.84e+01,-1.08e+00,
496,3.84e+01,-1.12e+00,
497,3.68e+01,-1.08e+00,
498,3.84e+01,-1.08e+00,
499,3.68e+01,-1.12e+00,
500,3.84e+01,-1.12e+00,
501,3.68e+01,-1.08e+00,
502,3.68e+01,-1.08e+00,
503,3.84e+01,-1.12e+00,
504,3.68e+01,-1.08e+00,
505,3.84e+01,-1.12e+00,
506,3.84e+01,-1.08e+00,
507,3.68e+01,-1.12e+00,
508,3.68e+01,-1.08e+00,
509,3.84e+01,-1.12e+00,
510,3.76e+01,-1.08e+00,
511,3.84e+01,-1.14e+00,
512,3.84e+01,-1.10e+00,
513,3.76e+01,-1.14e+00,
514,3.76e+01,-1.14e+00,
515,3.84e+01,-1.10e+00,
516,3.76e+01,-1.10e+00,
517,3.84e+01,-1.12e+00,
518,3.76e+01,-1.08e+00,
519,3.84e+01,-1.14e+00,
520,3.76e+01,-1.10e+00,
521,3.84e+01,-1.14e+00,
522,3.84e+01,-1.14e+00,
523,3.76e+01,-1.10e+00,
524,3.84e+01,-1.10e+00,
525,3.76e+01,-1.14e+00,
526,3.76e+01,-1.10e+00,
527,3.92e+01,-1.14e+00,
528,3.76e+01,-1.14e+00,
529,3.92e+01,-1.10e+00,
530,3.92e+01,-1.10e+00,
531,3.76e+01,-1.14e+00,
532,3.76e+01,-1.12e+00,
533,3.92e+01,-1.18e+00,
534,3.76e+01,-1.12e+00,
535,3.92e+01,-1.18e+00,
536,3.92e+01,-1.14e+00,
537,3.76e+01,-1.12e+00,
538,3.84e+01,-1.12e+00,
539,3.92e+01,-1.18e+00,
540,3.84e+01,-1.18e+00,
541,3.92e+01,-1.12e+00,
542,3.84e+01,-1.16e+00,
543,3.92e+01,-1.18e+00,
544,3.92e+01,-1.16e+00,
545,3.84e+01,-1.18e+00,
546,3.84e+01,-1.16e+00,
547,3.92e+01,-1.12e+00,
548,3.84e+01,-1.12e+00,
549,4.00e+01,-1.18e+00,
550,3.84e+01,-1.16e+00,
551,4.00e+01,-1.20e+00,
552,4.00e+01,-1.16e+00,
553,3.84e+01,-1.20e+00,
554,3.84e+01,-1.16e+00,
555,4.00e+01,-1.20e+00,
556,4.00e+01,-1.16e+00,
557,3.84e+01,-1.20e+00,
558,3.84e+01,-1.20e+00,
559,4.00e+01,-1.16e+00,
560,3.84e+01,-1.16e+00,
561,4.00e+01,-1.22e+00,
562,4.00e+01,-1.22e+00,
563,3.84e+01,-1.18e+00,
564,3.92e+01,-1.18e+00,
565,4.00e+01,-1.22e+00,
566,3.92e+01,-1.22e+00,
567,4.00e+01,-1.18e+00,
568,4.00e+01,-1.22e+00,
569,3.92e+01,-1.18e+00,
570,4.00e+01,-1.18e+00,
571,3.92e+01,-1.22e+00,
572,4.00e+01,-1.20e+00,
573,3.92e+01,-1.24e+00,
574,3.92e+01,-1.24e+00,
575,4.00e+01,-1.20e+00,
576,3.92e+01,-1.24e+00,
577,4.08e+01,-1.20e+00,
578,3.92e+01,-1.24e+00,
579,4.08e+01,-1.20e+00,
580,4.08e+01,-1.24e+00,
581,3.92e+01,-1.20e+00,
582,3.92e+01,-1.28e+00,
583,4.08e+01,-1.22e+00,
584,3.92e+01,-1.28e+00,
585,4.08e+01,-1.24e+00,
586,3.92e+01,-1.24e+00,
587,4.08e+01,-1.28e+00,
588,4.08e+01,-1.22e+00,
589,4.00e+01,-1.28e+00,
590,4.00e+01,-1.28e+00,
591,4.08e+01,-1.22e+00,
592,4.00e+01,-1.30e+00,
593,4.08e+01,-1.26e+00,
594,4.00e+01,-1.30e+00,
595,4.08e+01,-1.26e+00,
596,4.00e+01,-1.30e+00,
597,4.08e+01,-1.26e+00,
598,4.08e+01,-1.30e+00,
599,4.00e+01,-1.26e+00,
600,4.00e+01,-1.26e+00,
601,4.16e+01,-1.32e+00,
602,4.16e+01,-1.32e+00,
603,4.00e+01,-1.28e+00,
604,4.00e+01,-1.28e+00,
605,4.16e+01,-1.32e+00,
606,4.16e+01,-1.28e+00,
607,4.00e+01,-1.32e+00,
608,4.08e+01,-1.28e+00,
609,4.16e+01,-1.36e+00,
610,4.16e+01,-1.36e+00,
611,4.08e+01,-1.30e+00,
612,4.08e+01,-1.34e+00,
613,4.16e+01,-1.38e+00,
614,4.08e+01,-1.38e+00,
615,4.16e+01,-1.34e+00,
616,4.16e+01,-1.38e+00,
617,4.08e+01,-1.34e+00,
618,4.08e+01,-1.38e+00,
619,4.24e+01,-1.34e+00,
620,4.24e+01,-1.34e+00,
621,4.08e+01,-1.40e+00,
622,4.08e+01,-1.40e+00,
623,4.24e+01,-1.36e+00,
624,4.08e+01,-1.36e+00,
625,4.24e+01,-1.40e+00,
626,4.16e+01,-1.40e+00,
627,4.24e+01,-1.36e+00,
628,4.24e+01,-1.36e+00,
629,4.16e+01,-1.40e+00,
630,4.16e+01,-1.38e+00,
631,4.24e+01,-1.44e+00,
632,4.24e+01,-1.38e+00,
633,4.16e+01,-1.44e+00,
634,4.16e+01,-1.44e+00,
635,4.32e+01,-1.38e+00,
636,4.16e+01,-1.38e+00,
637,4.32e+01,-1.42e+00,
638,4.32e+01,-1.38e+00,
639,4.16e+01,-1.42e+00,
640,4.16e+01,-1.42e+00,
641,4.32e+01,-1.46e+00,
642,4.16e+01,-1.42e+00,
643,4.32e+01,-1.46e+00,
644,4.24e+01,-1.42e+00,
645,4.32e+01,-1.46e+00,
646,4.32e+01,-1.46e+00,
647,4.24e+01,-1.42e+00,
648,4.24e+01,-1.46e+00,
649,4.32e+01,-1.42e+00,
650,4.32e+01,-1.42e+00,
651,4.24e+01,-1.48e+00,
652,4.32e+01,-1.48e+00,
653,4.24e+01,-1.44e+00,
654,4.24e+01,-1.48e+00,
655,4.40e+01,-1.44e+00,
656,4.40e+01,-1.44e+00,
657,4.24e+01,-1.46e+00,
658,4.40e+01,-1.42e+00,
659,4.24e+01,-1.48e+00,
660,4.24e+01,-1.44e+00,
661,4.40e+01,-1.48e+00,
662,4.24e+01,-1.48e+00,
663,4.40e+01,-1.44e+00,
664,4.32e+01,-1.44e+00,
665,4.40e+01,-1.48e+00,
666,4.40e+01,-1.48e+00,
667,4.32e+01,-1.44e+00,
668,4.32e+01,-1.44e+00,
669,4.40e+01,-1.48e+00,
670,4.32e+01,-1.48e+00,
671,4.48e+01,-1.44e+00,
672,4.32e+01,-1.44e+00,
673,4.48e+01,-1.48e+00,
674,4.32e+01,-1.44e+00,
675,4.48e+01,-1.48e+00,
676,4.32e+01,-1.48e+00,
677,4.48e+01,-1.44e+00,
678,4.32e+01,-1.44e+00,
679,4.48e+01,-1.48e+00,
680,4.48e+01,-1.48e+00,
681,4.32e+01,-1.44e+00,
682,4.40e+01,-1.48e+00,
683,4.48e+01,-1.44e+00,
684,4.48e+01,-1.44e+00,
685,4.40e+01,-1.48e+00,
686,4.48e+01,-1.48e+00,
687,4.40e+01,-1.44e+00,
688,4.40e+01,-1.46e+00,
689,4.56e+01,-1.42e+00,
690,4.40e+01,-1.44e+00,
691,4.56e+01,-1.48e+00,
692,4.56e+01,-1.48e+00,
693,4.40e+01,-1.44e+00,
694,4.40e+01,-1.48e+00,
695,4.56e+01,-1.44e+00,
696,4.56e+01,-1.46e+00,
697,4.48e+01,-1.42e+00,
698,4.56e+01,-1.42e+00,
699,4.48e+01,-1.46e+00,
700,4.48e+01,-1.42e+00,
701,4.56e+01,-1.46e+00,
702,4.56e+01,-1.48e+00,
703,4.48e+01,-1.44e+00,
704,4.48e+01,-1.46e+00,
705,4.64e+01,-1.42e+00,
706,4.64e+01,-1.42e+00,
707,4.48e+01,-1.46e+00,
708,4.64e+01,-1.42e+00,
709,4.48e+01,-1.44e+00,
710,4.64e+01,-1.42e+00,
711,4.48e+01,-1.46e+00,
712,4.64e+01,-1.46e+00,
713,4.56e+01,-1.42e+00,
714,4.56e+01,-1.46e+00,
715,4.64e+01,-1.42e+00,
716,4.64e+01,-1.44e+00,
717,4.56e+01,-1.38e+00,
718,4.64e+01,-1.44e+00,
719,4.56e+01,-1.38e+00,
720,4.56e+01,-1.38e+00,
721,4.72e+01,-1.44e+00,
722,4.72e+01,-1.44e+00,
723,4.56e+01,-1.38e+00,
724,4.72e+01,-1.38e+00,
725,4.56e+01,-1.44e+00,
726,4.56e+01,-1.44e+00,
727,4.72e+01,-1.38e+00,
728,4.72e+01,-1.40e+00,
729,4.64e+01,-1.36e+00,
730,4.72e+01,-1.36e+00,
731,4.64e+01,-1.42e+00,
732,4.72e+01,-1.38e+00,
733,4.64e+01,-1.42e+00,
734,4.72e+01,-1.40e+00,
735,4.64e+01,-1.36e+00,
736,4.64e+01,-1.40e+00,
737,4.72e+01,-1.36e+00,
738,4.64e+01,-1.36e+00,
739,4.80e+01,-1.38e+00,
740,4.80e+01,-1.36e+00,
741,4.64e+01,-1.40e+00,
742,4.80e+01,-1.40e+00,
743,4.64e+01,-1.36e+00,
744,4.64e+01,-1.40e+00,
745,4.80e+01,-1.34e+00,
746,4.80e+01,-1.34e+00,
747,4.64e+01,-1.38e+00,
748,4.64e+01,-1.38e+00,
749,4.80e+01,-1.34e+00,
750,4.80e+01,-1.38e+00,
751,4.64e+01,-1.34e+00,
752,4.80e+01,-1.34e+00,
753,4.72e+01,-1.38e+00,
754,4.80e+01,-1.34e+00,
755,4.72e+01,-1.38e+00,
756,4.80e+01,-1.36e+00,
757,4.72e+01,-1.30e+00,
758,4.72e+01,-1.30e+00,
759,4.80e+01,-1.34e+00,
760,4.80e+01,-1.36e+00,
761,4.72e+01,-1.30e+00,
762,4.80e+01,-1.34e+00,
763,4.72e+01,-1.38e+00,
764,4.72e+01,-1.36e+00,
765,4.88e+01,-1.32e+00,
766,4.72e+01,-1.30e+00,
767,4.88e+01,-1.36e+00,
768,4.88e+01,-1.36e+00,
769,4.72e+01,-1.30e+00,
770,4.88e+01,-1.36e+00,
771,4.80e+01,-1.30e+00,
772,4.88e+01,-1.30e+00,
773,4.72e+01,-1.36e+00,
774,4.88e+01,-1.30e+00,
775,4.72e+01,-1.36e+00,
776,4.72e+01,-1.32e+00,
777,4.88e+01,-1.28e+00,
778,4.88e+01,-1.28e+00,
779,4.72e+01,-1.32e+00,
780,4.80e+01,-1.28e+00,
781,4.88e+01,-1.32e+00,
782,4.88e+01,-1.30e+00,
783,4.80e+01,-1.36e+00,
784,4.88e+01,-1.32e+00,
785,4.80e+01,-1.28e+00,
786,4.88e+01,-1.32e+00,
787,4.80e+01,-1.28e+00,
788,4.88e+01,-1.30e+00,
789,4.80e+01,-1.28e+00,
790,4.88e+01,-1.28e+00,
791,4.80e+01,-1.32e+00,
792,4.88e+01,-1.32e+00,
793,4.80e+01,-1.28e+00,
794,4.88e+01,-1.32e+00,
795,4.80e+01,-1.28e+00,
796,4.88e+01,-1.30e+00,
797,4.80e+01,-1.26e+00,
798,4.80e+01,-1.30e+00,
799,4.96e+01,-1.26e+00,
800,4.96e+01,-1.30e+00,
801,4.80e+01,-1.26e+00,
802,4.96e+01,-1.26e+00,
803,4.80e+01,-1.30e+00,
804,4.96e+01,-1.26e+00,
805,4.88e+01,-1.30e+00,
806,4.96e+01,-1.28e+00,
807,4.80e+01,-1.22e+00,
808,4.80e+01,-1.28e+00,
809,4.96e+01,-1.22e+00,
810,4.80e+01,-1.22e+00,
811,4.96e+01,-1.28e+00,
812,4.96e+01,-1.28e+00,
813,4.88e+01,-1.24e+00,
814,4.96e+01,-1.28e+00,
815,4.88e+01,-1.22e+00,
816,4.96e+01,-1.28e+00,
817,4.88e+01,-1.22e+00,
818,4.96e+01,-1.24e+00,
819,4.88e+01,-1.20e+00,
820,4.96e+01,-1.24e+00,
821,4.88e+01,-1.20e+00,
822,4.96e+01,-1.24e+00,
823,4.88e+01,-1.22e+00,
824,4.96e+01,-1.24e+00,
825,4.88e+01,-1.20e+00,
826,4.96e+01,-1.20e+00,
827,4.88e+01,-1.24e+00,
828,4.88e+01,-1.20e+00,
829,5.04e+01,-1.22e+00,
830,4.96e+01,-1.20e+00,
831,5.12e+01,-1.24e+00,
832,5.04e+01,-1.24e+00,
833,4.96e+01,-1.20e+00,
